{
  "App": {
    "Name": "evoncore-example",
    "UUID": "run uuid cli",
    "IP": "0.0.0.0",
    "Port": "50000"
  },
  "Proto": {
    "PackageName": "example",
    "ServiceName": "ExampleService",
    "FilePath": "../proto/example.proto"
  },
  "Database": {
    "URI": "mongodb://127.0.0.1:27017/evoncore-example"
  },
  "Clients": []
}